Prepare stomach content data
…
drop_na: no rows removed

distinct: removed 11,969 rows (53%), 10,601 rows remaining

group_by: 2 grouping variables (Country, Year)

summarise: now 24 rows and 3 columns, one group variable remaining (Country)

# A tibble: 24 × 3
# Groups:   Country [4]
   Country  Year     n
   <chr>   <dbl> <int>
 1 LV       1993   213
 2 LV       1994   143
 3 LV       1995   232
 4 LV       1996   222
 5 LV       1997   135
 6 LV       1998   149
 7 LV       1999   572
 8 LV       2000   447
 9 LV       2001   431
10 LV       2002   390
# ℹ 14 more rows
…
