Prepare stomach content data
…
`summarise()` has grouped output by 'unique_FishID'. You can override using the
`.groups` argument.

  # summarise(tot_sprat = sum(Weight),
  #           tot_herring = sum(Weight),
  #           tot_herring = sum(Weight))

prey_sum

# A tibble: 174 × 4
   unique_FishID  sprat saduria herring
   <chr>          <int>   <int>   <int>
 1 2003_11_5_1        1       0       0
 2 2003_11_9_116      0       3       0
 3 2021_11_10_121    14       0      18
 4 2021_11_10_122    32       0      35
 5 2021_11_10_123     5       0       0
 6 2021_11_10_124     4       0       0
 7 2021_11_10_126    26       0       0
 8 2021_11_10_131    15       0       0
 9 2021_11_10_132     5       0       0
10 2021_11_13_150     0       0      18
# ℹ 164 more rows
…
